verilog/RiscvFemto_tb.vcd
$date
   Wed Nov 30 23:12:14 2022
$end
$version
  2020.2
$end
$timescale
  1ps
$end
$scope module RiscvFemto_tb $end
$var reg 1 ] tx $end
$var reg 8 \ leds [7:0] $end
$var wire 32 e regFile0 [31:0] $end
$var wire 32 f regFile1 [31:0] $end
$var wire 32 g regFile2 [31:0] $end
$var wire 32 h regFile3 [31:0] $end
$var wire 32 i regFile4 [31:0] $end
$var wire 32 j regFile5 [31:0] $end
$var wire 32 k regFile6 [31:0] $end
$var wire 32 l regFile7 [31:0] $end
$var wire 32 m regFile8 [31:0] $end
$var wire 32 n regFile9 [31:0] $end
$var wire 32 o regFile10 [31:0] $end
$var wire 32 p regFile11 [31:0] $end
$var wire 32 q regFile12 [31:0] $end
$var wire 32 r regFile13 [31:0] $end
$var wire 32 s regFile14 [31:0] $end
$var wire 32 t regFile15 [31:0] $end
$var wire 32 u regFile16 [31:0] $end
$var wire 32 v regFile17 [31:0] $end
$var wire 32 w regFile18 [31:0] $end
$var wire 32 x regFile19 [31:0] $end
$var wire 32 y regFile20 [31:0] $end
$var wire 32 z regFile21 [31:0] $end
$var wire 32 { regFile22 [31:0] $end
$var wire 32 | regFile23 [31:0] $end
$var wire 32 } regFile24 [31:0] $end
$var wire 32 ~ regFile25 [31:0] $end
$var wire 32 !! regFile26 [31:0] $end
$var wire 32 "! regFile27 [31:0] $end
$var wire 32 #! regFile28 [31:0] $end
$var wire 32 $! regFile29 [31:0] $end
$var wire 32 %! regFile30 [31:0] $end
$var wire 32 &! regFile31 [31:0] $end
$scope module uut $end
$var reg 1 ! clk $end
$var reg 1 " rstn $end
$var reg 32 # memIn [31:0] $end
$var reg 32 $ memAddr [31:0] $end
$var reg 1 % memRead $end
$var reg 4 & memWstrb [3:0] $end
$var reg 32 ' memWrite [31:0] $end
$var reg 32 ( instr [31:0] $end
$var reg 32 ) pc [31:0] $end
$var reg 32 * rs1 [31:0] $end
$var reg 32 + rs2 [31:0] $end
$var wire 1 , isAluReg $end
$var wire 1 - isBranch $end
$var wire 1 . isJalr $end
$var wire 1 / isJal $end
$var wire 1 0 isAuiPc $end
$var wire 1 1 isLui $end
$var wire 1 2 isLoad $end
$var wire 1 3 isStore $end
$var wire 1 4 isSystem $end
$var wire 5 5 rs1Id [4:0] $end
$var wire 5 6 rs2Id [4:0] $end
$var wire 5 7 rdId [4:0] $end
$var wire 3 8 funct3 [2:0] $end
$var wire 7 9 funct7 [6:0] $end
$var wire 32 : immU [31:0] $end
$var wire 32 ; immI [31:0] $end
$var wire 32 < immS [31:0] $end
$var wire 32 = immB [31:0] $end
$var wire 32 > immJ [31:0] $end
$var wire 32 ? aluIn1 [31:0] $end
$var wire 32 @ aluIn2 [31:0] $end
$var reg 32 A aluOut [31:0] $end
$var wire 1 B aluSubtract $end
$var wire 33 C aluAdder [32:0] $end
$var wire 1 D aluEq $end
$var wire 1 E aluLtu $end
$var wire 1 F aluLt $end
$var reg 1 G takeBranch $end
$var wire 5 H shamt [4:0] $end
$var wire 32 I flipAluIn1 [31:0] $end
$var wire 32 J shifterIn [31:0] $end
$var wire 32 K shifter [31:0] $end
$var wire 32 L leftShift [31:0] $end
$var reg 32 M state [31:0] $end
$var wire 32 N loadstoreAddr [31:0] $end
$var wire 1 O memByteAccess $end
$var wire 1 P memHalfwordAccess $end
$var wire 16 Q loadHalfword [15:0] $end
$var wire 8 R loadByte [7:0] $end
$var wire 1 S loadSign $end
$var wire 32 T loadData [31:0] $end
$var wire 4 U storeMask [3:0] $end
$var wire 32 V pcPlus4 [31:0] $end
$var wire 32 W pcPlusImm [31:0] $end
$var wire 32 X nextPC [31:0] $end
$var wire 32 Y writeBackData [31:0] $end
$var wire 1 Z writeBackEn $end
$scope begin Block20_2 $end
$var reg 32 [ i $end
$upscope $end
$upscope $end
$scope module uat0 $end
$var wire 1 ^ clk $end
$var wire 1 _ rstn $end
$var wire 8 ` dIn [7:0] $end
$var wire 1 a dInValid $end
$var reg 1 b dInReady $end
$var reg 1 ] tx $end
$var reg 5 c clkDiv [4:0] $end
$var reg 9 d shift [8:0] $end
$upscope $end
$upscope $end
$enddefinitions $end
#0
$dumpvars
0!
b0 !!
1"
b0 "!
bx #
b0 #!
b0 $
b0 $!
1%
b0 %!
b0 &
b0 &!
b0 '
b0 (
b0 )
b0 *
b0 +
0,
0-
0.
0/
00
01
02
03
04
b0 5
b0 6
b0 7
b0 8
b0 9
b0 :
b0 ;
b0 <
b0 =
b0 >
b0 ?
b0 @
b0 A
0B
b0 C
1D
0E
0F
1G
b0 H
b0 I
b0 J
b0 K
b0 L
b0 M
b0 N
1O
0P
bx Q
bx R
xS
bx T
b1 U
b100 V
b0 W
b100 X
b0 Y
0Z
b100000 [
b0 \
1]
0^
1_
b0 `
0a
0b
b11111 c
b0 d
b0 e
b0 f
b0 g
b0 h
b0 i
b0 j
b0 k
b0 l
b0 m
b0 n
b0 o
b0 p
b0 q
b0 r
b0 s
b0 t
b0 u
b0 v
b0 w
b0 x
b0 y
b0 z
b0 {
b0 |
b0 }
b0 ~
$end
#1000
1!
b1000100010111 #
b0 $
0%
b0 &
b1 M
b1000100010111 Q
b10111 R
0S
b10111 T
1]
1^
1b
#2000
0!
0^
#3000
1!
b0 $
0%
b0 &
b1000100010111 (
0,
0-
0.
0/
10
01
02
03
b10 7
b1 8
b1000000000000 :
b10 <
b10 =
b1000000000000 >
b0 A
0G
b0 J
b10 M
b0 N
0O
1P
0S
b1000100010111 T
b11 U
b1000000000000 W
b1000000000000 Y
1]
1^
#4000
0!
0^
#5000
1!
b0 $
0%
b0 &
b11 M
1Z
1]
1^
#6000
0!
0^
#7000
1!
b100 $
1%
b0 &
b100 )
b0 M
b1000 V
b1000000000100 W
b1000 X
b1000000000100 Y
0Z
1]
1^
b1000000000000 g
#8000
0!
0^
#9000
1!
b10000000000000010000000100010011 #
b100 $
0%
b0 &
b1 M
b100010011 Q
b10011 R
b100010011 T
1]
1^
#10000
0!
0^
#11000
1!
b0 #
b11111111111111111111100000000000 $
0%
b0 &
b10000000000000010000000100010011 (
0,
0-
0.
0/
00
01
02
03
b10 5
b0 8
b1000000 9
b10000000000000010000000000000000 :
b11111111111111111111100000000000 ;
b11111111111111111111100000000010 <
b11111111111111111111000000000010 =
b11111111111100010000000000000000 >
b11111111111111111111100000000000 @
b11111111111111111111100000000000 A
b111111111111111111111100000000000 C
0D
0E
1F
0G
b0 J
b10 M
b11111111111111111111100000000000 N
1O
0P
b0 Q
b0 R
0S
b0 T
b1 U
b10000000000000010000000000000100 W
b11111111111111111111100000000000 Y
1]
1^
#12000
0!
0^
#13000
1!
b10000000000000010000000100010011 #
b100000000000 $
0%
b0 &
b1000000000000 *
b1000000000000 ?
b100000000000 A
b100000000000 C
0D
1E
0F
b10000000000000000000 I
b1000000000000 J
b1000000000000 K
b10000000000000000000 L
b11 M
b100000000000 N
b100010011 Q
b10011 R
b10011 T
b100000000000 Y
1Z
1]
1^
#14000
0!
0^
#15000
1!
b1000 $
1%
b0 &
b1000 )
b0 M
b1100 V
b10000000000000010000000000001000 W
b1100 X
0Z
1]
1^
b100000000000 g
#16000
0!
0^
#17000
1!
b10000000000000001101111 #
b1000 $
0%
b0 &
b1 M
b1101111 Q
b1101111 R
b1101111 T
1]
1^
#18000
0!
0^
#19000
1!
b1000000000100 $
0%
b0 &
b10000000000000001101111 (
0,
0-
0.
1/
00
01
02
03
b0 5
b100 6
b0 7
b0 9
b10000000000000000000000 :
b100 ;
b0 <
b0 =
b100 >
b100 @
b1000000000100 A
b1000000000100 C
0D
0E
b100 H
b100000000 K
b100000000000000000000000 L
b10 M
b1000000000100 N
b1100 W
b1100 X
b1100 Y
1]
1^
#20000
0!
0^
#21000
1!
b100 $
0%
b0 &
b0 *
b0 ?
b100 A
b100 C
0D
b0 I
b0 J
b0 K
b0 L
b11 M
b100 N
1Z
1]
1^
#22000
0!
0^
#23000
1!
b1100 $
1%
b0 &
b1100 )
b0 M
b10000 V
b10000 W
b10000 X
b10000 Y
0Z
1]
1^
#24000
0!
0^
#25000
1!
b10100110111 #
b1100 $
0%
b0 &
b1 M
b10100110111 Q
b110111 R
b110111 T
1]
1^
#26000
0!
0^
#27000
1!
b0 $
0%
b0 &
b10100110111 (
0,
0-
0.
0/
00
11
02
03
b0 6
b1010 7
b0 :
b0 ;
b1010 <
b1010 =
b0 >
b0 @
b0 A
b0 C
1D
1G
b0 H
b0 K
b10 M
b0 N
b1100 W
b0 Y
1]
1^
#28000
0!
0^
#29000
1!
b0 $
0%
b0 &
b11 M
1Z
1]
1^
#30000
0!
0^
#31000
1!
b10100110111 #
b10000 $
1%
b0 &
b10000 )
b0 M
b10100 V
b10000 W
b10100 X
0Z
1]
1^
#32000
0!
0^
#33000
1!
b110000001010000010100010011 #
b10000 $
0%
b0 &
b1 M
b10100010011 Q
b10011 R
b10011 T
1]
1^
#34000
0!
0^
#35000
1!
b110000001010000010100010011 #
b1100000 $
0%
b0 &
b110000001010000010100010011 (
0,
0-
0.
0/
00
01
02
03
b1010 5
b11 9
b110000001010000000000000000 :
b1100000 ;
b1101010 <
b1101010 =
b1010000000001100000 >
b1100000 @
b1100000 A
b1100000 C
0D
0G
b10 M
b1100000 N
b110000001010000000000010000 W
b1100000 Y
1]
1^
#36000
0!
0^
#37000
1!
b1100000 $
0%
b0 &
b11 M
1Z
1]
1^
#38000
0!
0^
#39000
1!
b110000001010000010100010011 #
b10100 $
1%
b0 &
b10100 )
b0 M
b11000 V
b110000001010000000000010100 W
b11000 X
0Z
1]
1^
b1100000 o
#40000
0!
0^
#41000
1!
b11001010000010110010011 #
b10100 $
0%
b0 &
b1 M
b10110010011 Q
b10010011 R
1S
b11111111111111111111111110010011 T
1]
1^
#42000
0!
0^
#43000
1!
b11001010000010110010011 #
b110 $
0%
b0 &
b0 '
b11001010000010110010011 (
b110 6
b1011 7
b0 9
b11001010000000000000000 :
b110 ;
b1011 <
b100000001010 =
b1010000000000000110 >
b110 @
b110 A
b110 C
0D
b110 H
b0 K
b10 M
b110 N
b1100101 Q
b1100101 R
0S
b1100101 T
b100 U
b11001010000000000010100 W
b110 Y
1]
1^
#44000
0!
0^
#45000
1!
b1100110 $
0%
b0 &
b1100000 *
b1100000 ?
b1100110 A
b1100110 C
0D
b110000000000000000000000000 I
b1100000 J
b1 K
b10000000000000000000000000000000 L
b11 M
b1100110 N
b1100110 Y
1Z
1]
1^
#46000
0!
0^
#47000
1!
b11001010000010110010011 #
b11000 $
1%
b0 &
b11000 )
b0 M
b11100 V
b11001010000000000011000 W
b11100 X
0Z
1]
1^
b1100110 p
#48000
0!
0^
#49000
1!
b10000000000011000110111 #
b11000 $
0%
b0 &
b1 M
b1000000 Q
b1000000 R
b1000000 T
1]
1^
#50000
0!
0^
#51000
1!
b10000000000011000110111 #
b1100100 $
0%
b0 &
b0 '
b10000000000011000110111 (
0,
0-
0.
0/
00
11
02
03
b0 5
b100 6
b1100 7
b10000000000000000000000 :
b100 ;
b1100 <
b1100 =
b100 >
b100 @
b1100100 A
b1100100 C
0D
b100 H
b110 K
b1100000000000000000000000000000 L
b10 M
b1100100 N
b11000110111 Q
b110111 R
b110111 T
b1 U
b10000000000000000011000 W
b10000000000000000000000 Y
1]
1^
#52000
0!
0^
#53000
1!
b100 $
0%
b0 &
b0 *
b0 ?
b100 A
b100 C
0D
b0 I
b0 J
b0 K
b0 L
b11 M
b100 N
1Z
1]
1^
#54000
0!
0^
#55000
1!
b10000000000011000110111 #
b11100 $
1%
b0 &
b11100 )
b0 M
b100000 V
b10000000000000000011100 W
b100000 X
0Z
1]
1^
b10000000000000000000000 q
#56000
0!
0^
#57000
1!
b101101010000111001100011 #
b11100 $
0%
b0 &
b1 M
b111001100011 Q
b1100011 R
b1100011 T
1]
1^
#58000
0!
0^
#59000
1!
b101101010000111001100011 #
b1011 $
0%
b0 &
b0 '
b101101010000111001100011 (
0,
1-
0.
0/
00
01
02
03
b1010 5
b1011 6
b11100 7
b101101010000000000000000 :
b1011 ;
b11100 <
b11100 =
b1010000100000001010 >
b0 @
b0 A
1B
b0 C
1D
1G
b0 H
b0 K
b10 M
b1011 N
b10110101 Q
b0 R
b0 T
b1000 U
b111000 W
b111000 X
b0 Y
1]
1^
#60000
0!
0^
#61000
1!
b1101011 $
0%
b0 &
b1100110011001100110011001100110 '
b1100000 *
b1100110 +
b1100000 ?
b1100110 @
b11111111111111111111111111111010 A
b111111111111111111111111111111010 C
0D
1E
1F
0G
b110 H
b110000000000000000000000000 I
b1100000 J
b1 K
b10000000000000000000000000000000 L
b11 M
b1101011 N
b100000 X
b11111111111111111111111111111010 Y
1]
1^
b1100110 `
#62000
0!
0^
#63000
1!
b100000 $
1%
b0 &
b100000 )
b0 M
b100100 V
b111100 W
b100100 X
1]
1^
#64000
0!
0^
#65000
1!
b1010100011010000011 #
b100000 $
0%
b0 &
b1 M
b101 Q
b0 R
b0 T
1]
1^
#66000
0!
0^
#67000
1!
b1100000 $
0%
b0 &
b1100110 '
b1010100011010000011 (
0,
0-
0.
0/
00
01
12
03
b0 6
b1101 7
b100 8
b1010100000000000000 :
b0 ;
b1101 <
b100000001100 =
b1010100000000000000 >
b0 @
b1100000 A
0B
b1100000 C
0D
0E
0F
0G
b0 H
b1100000 J
b1100000 K
b110000000000000000000000000 L
b10 M
b1100000 N
b100011010000011 Q
b10000011 R
0S
b10000011 T
b1 U
b100000101100 W
b10000011 Y
1]
1^
#68000
0!
0^
#69000
1!
b1100000 $
0%
b0 &
b0 '
b0 +
b0 @
b11 M
1]
1^
b0 `
#70000
0!
0^
#71000
1!
b1100000 $
1%
b0 &
b100100 )
b100 M
b101000 V
b100000110000 W
b101000 X
1]
1^
#72000
0!
0^
#73000
1!
b1110111011101110110010101001000 #
b1100000 $
0%
b0 &
b101 M
b110010101001000 Q
b1001000 R
0S
b1001000 T
b1001000 Y
1Z
1]
1^
#74000
0!
0^
#75000
1!
b100100 $
1%
b0 &
b0 M
0Z
1]
1^
b1001000 r
#76000
0!
0^
#77000
1!
b1000001100101011100000011 #
b100100 $
0%
b0 &
b1 M
b101011100000011 Q
b11 R
b11 T
b11 Y
1]
1^
#78000
0!
0^
#79000
1!
b1000001100101011100000011 #
b1110000 $
0%
b0 &
b1000001100101011100000011 (
b1100 5
b10000 6
b1110 7
b101 8
b1000001100101000000000000 :
b10000 ;
b1110 <
b1110 =
b1100101000000010000 >
b10000 @
b0 A
b1110000 C
0D
1G
b10000 H
b1100000 J
b0 K
b0 L
b10 M
b1110000 N
0O
1P
0S
b101011100000011 T
b11 U
b110010 W
b101011100000011 Y
1]
1^
#80000
0!
0^
#81000
1!
b1000000000 #
b10000000000000000010000 $
0%
b0 &
b10000000000000000000000 *
b10000000000000000000000 ?
b1000000 A
b10000000000000000010000 C
0D
b1000000000 I
b10000000000000000000000 J
b1000000 K
b10000000000000000000000000 L
b11 M
b10000000000000000010000 N
b1000000000 Q
b0 R
b1000000000 T
b1000000000 Y
1]
1^
#82000
0!
0^
#83000
1!
b10000000000000000010000 $
1%
b0 &
b101000 )
b100 M
b101100 V
b110110 W
b101100 X
1]
1^
#84000
0!
0^
#85000
1!
b10000000000000000010000 $
0%
b0 &
b101 M
1Z
1]
1^
#86000
0!
0^
#87000
1!
b1000001100101011100000011 #
b101000 $
1%
b0 &
b0 M
b101011100000011 Q
b11 R
b101011100000011 T
b101011100000011 Y
0Z
1]
1^
b1000000000 s
#88000
0!
0^
#89000
1!
b11111110000001110000111011100011 #
b101000 $
0%
b0 &
b1 M
b111011100011 Q
b11100011 R
0S
b111011100011 T
b111011100011 Y
1]
1^
#90000
0!
0^
#91000
1!
b11111110000001110000111011100011 #
b1111111111111111100000 $
0%
b0 &
b11111110000001110000111011100011 (
0,
1-
0.
0/
00
01
02
03
b1110 5
b0 6
b11101 7
b0 8
b1111111 9
b11111110000001110000000000000000 :
b11111111111111111111111111100000 ;
b11111111111111111111111111111101 <
b11111111111111111111111111111100 =
b11111111111101110000011111100000 >
b0 @
b10000000000000000000000 A
1B
b10000000000000000000000 C
0D
0G
b0 H
b10000000000000000000000 J
b10000000000000000000000 K
b1000000000 L
b10 M
b1111111111111111100000 N
1O
0P
b111011100011 Q
b11100011 R
1S
b11111111111111111111111111100011 T
b1 U
b100100 W
b101100 X
b10000000000000000000000 Y
1]
1^
#92000
0!
0^
#93000
1!
b111100000 $
0%
b0 &
b1000000000 *
b1000000000 ?
b1000000000 A
b1000000000 C
0D
b10000000000000000000000 I
b1000000000 J
b1000000000 K
b10000000000000000000000 L
b11 M
b111100000 N
b1000000000 Y
1]
1^
#94000
0!
0^
#95000
1!
b101100 $
1%
b0 &
b101100 )
b0 M
b110000 V
b101000 W
b110000 X
1]
1^
#96000
0!
0^
#97000
1!
b101010000010100010011 #
b101100 $
0%
b0 &
b1 M
b10100010011 Q
b10011 R
0S
b10011 T
1]
1^
#98000
0!
0^
#99000
1!
b1000000001 $
0%
b0 &
b0 '
b101010000010100010011 (
0,
0-
0.
0/
00
01
02
03
b1010 5
b1 6
b1010 7
b0 9
b101010000000000000000 :
b1 ;
b1010 <
b1010 =
b1010000100000000000 >
b1 @
b1000000001 A
0B
b1000000001 C
0D
0E
b1 H
b100000000 K
b100000000000000000000000 L
b10 M
b1000000001 N
b101 R
b101 T
b10 U
b101010000000000101100 W
b1000000001 Y
1]
1^
#100000
0!
0^
#101000
1!
b1100001 $
0%
b0 &
b1100000 *
b1100000 ?
b1100001 A
b1100001 C
0D
b110000000000000000000000000 I
b1100000 J
b110000 K
b1100000000000000000000000000 L
b11 M
b1100001 N
b1100001 Y
1Z
1]
1^
#102000
0!
0^
#103000
1!
b101010000010100010011 #
b110000 $
1%
b0 &
b110000 )
b0 M
b110100 V
b101010000000000110000 W
b110100 X
0Z
1]
1^
b1100001 o
#104000
0!
0^
#105000
1!
b110101100000010000100011 #
b110000 $
0%
b0 &
b1 M
b10000100011 Q
b100 R
b100 T
1]
1^
#106000
0!
0^
#107000
1!
b110101100000010000100011 #
b1101000 $
0%
b0 &
b0 '
b110101100000010000100011 (
0,
0-
0.
0/
00
01
02
13
b1100 5
b1101 6
b1000 7
b110101100000000000000000 :
b1101 ;
b1000 <
b1000 =
b1100000100000001100 >
b1101 @
b1101101 A
b1101101 C
0D
b1101 H
b0 K
b0 L
b10 M
b1101000 N
b10000100011 Q
b100011 R
0S
b100011 T
b1 U
b111000 W
b1101101 Y
1]
1^
#108000
0!
0^
#109000
1!
b0 #
b10000000000000000001000 $
0%
b0 &
b1001000 '
b10000000000000000000000 *
b1001000 +
b10000000000000000000000 ?
b1101 @
b10000000000000000001101 A
b10000000000000000001101 C
0D
b1000000000 I
b10000000000000000000000 J
b1000000000 K
b10000000000000000000000 L
b11 M
b10000000000000000001000 N
b0 Q
b0 R
b0 T
b10000000000000000001101 Y
1]
1^
b1001000 `
#110000
0!
0^
#111000
1!
b10000000000000000001000 $
0%
b1 &
b110100 )
b110 M
b111000 V
b111100 W
b111000 X
1]
1^
1a
#112000
0!
0^
#113000
1!
b110101100000010000100011 #
b110100 $
1%
b0 &
b0 M
b10000100011 Q
b100011 R
b100011 T
0]
1^
0a
0b
b1010 c
b101001000 d
#114000
0!
0^
#115000
1!
b11111110101101010001011011100011 #
b110100 $
0%
b0 &
b1 M
b1011011100011 Q
b11100011 R
1S
b11111111111111111111111111100011 T
1^
b1001 c
#116000
0!
0^
#117000
1!
b11111110101101010001011011100011 #
b1111111111111111101011 $
0%
b0 &
b1001000010010000100100001001000 '
b11111110101101010001011011100011 (
0,
1-
0.
0/
00
01
02
03
b1010 5
b1011 6
b1101 7
b1 8
b1111111 9
b11111110101101010001000000000000 :
b11111111111111111111111111101011 ;
b11111111111111111111111111101101 <
b11111111111111111111111111101100 =
b11111111111101010001111111101010 >
b1001000 @
b1000000000000000000000000000000 A
1B
b1111111111111110111000 C
0D
1G
b1000 H
b1000000000 J
b10 K
b1000000000000000000000000000000 L
b10 M
b1111111111111111101011 N
0O
1P
b1111111010110101 Q
b11111110 R
1S
b11111111111111111111111010110101 T
b1100 U
b100000 W
b100000 X
b1000000000000000000000000000000 Y
1^
b1000 c
#118000
0!
0^
#119000
1!
b1001100 $
0%
b0 &
b1100110 '
b1100001 *
b1100110 +
b1100001 ?
b1100110 @
b1100001000000 A
b111111111111111111111111111111011 C
0D
1E
1F
b110 H
b10000110000000000000000000000000 I
b10000110000000000000000000000000 J
b10000110000000000000000000 K
b1100001000000 L
b11 M
b1001100 N
b1011011100011 Q
b11100011 R
0S
b1011011100011 T
b11 U
b1100001000000 Y
1^
b1100110 `
b111 c
#120000
0!
0^
#121000
1!
b100000 $
1%
b0 &
b100000 )
b0 M
b100100 V
b1100 W
b1100 X
1^
b110 c
#122000
0!
0^
#123000
1!
b1010100011010000011 #
b100000 $
0%
b0 &
b1 M
b100011010000011 Q
b10000011 R
b100011010000011 T
1^
b101 c
#124000
0!
0^
#125000
1!
b1100001 $
0%
b0 &
b1100110000000000110011001100110 '
b1010100011010000011 (
0,
0-
0.
0/
00
01
12
03
b0 6
b100 8
b0 9
b1010100000000000000 :
b0 ;
b1101 <
b100000001100 =
b1010100000000000000 >
b0 @
b1100001 A
0B
b1100001 C
0D
0E
0F
0G
b0 H
b1100001 J
b1100001 K
b10000110000000000000000000000000 L
b10 M
b1100001 N
1O
0P
b1000110 R
0S
b1000110 T
b10 U
b100000101100 W
b100100 X
b1000110 Y
1^
b100 c
#126000
0!
0^
#127000
1!
b1100001 $
0%
b0 &
b0 '
b0 +
b0 @
b11 M
1^
b0 `
b11 c
#128000
0!
0^
#129000
1!
b1100001 $
1%
b0 &
b100100 )
b100 M
b101000 V
b100000110000 W
b101000 X
1^
b10 c
#130000
0!
0^
#131000
1!
b1110111011101110110010101001000 #
b1100001 $
0%
b0 &
b101 M
b110010101001000 Q
b1100101 R
b1100101 T
b1100101 Y
1Z
1^
b1 c
#132000
0!
0^
#133000
1!
b100100 $
1%
b0 &
b0 M
0Z
1^
b0 c
b1100101 r
#134000
0!
0^
#135000
1!
b1000001100101011100000011 #
b100100 $
0%
b0 &
b1 M
b101011100000011 Q
b1010111 R
b1010111 T
b1010111 Y
1^
b11111 c
#136000
0!
0^
#137000
1!
b1000001100101011100000011 #
b1110001 $
0%
b0 &
b1000001100101011100000011 (
b1100 5
b10000 6
b1110 7
b101 8
b1000001100101000000000000 :
b10000 ;
b1110 <
b1110 =
b1100101000000010000 >
b10000 @
b0 A
b1110001 C
0D
1G
b10000 H
b1100001 J
b0 K
b0 L
b10 M
b1110001 N
0O
1P
0S
b101011100000011 T
b11 U
b110010 W
b101011100000011 Y
0]
1^
b1010 c
b10100100 d
#138000
0!
0^
#139000
1!
b0 #
b10000000000000000010000 $
0%
b0 &
b0 '
b10000000000000000000000 *
b10000000000000000000000 ?
b1000000 A
b10000000000000000010000 C
0D
b1000000000 I
b10000000000000000000000 J
b1000000 K
b10000000000000000000000000 L
b11 M
b10000000000000000010000 N
b0 Q
b0 R
b0 T
b11 U
b0 Y
1^
b1001 c
#140000
0!
0^
#141000
1!
b10000000000000000010000 $
1%
b0 &
b101000 )
b100 M
b101100 V
b110110 W
b101100 X
1^
b1000 c
#142000
0!
0^
#143000
1!
b10000000000000000010000 $
0%
b0 &
b101 M
1Z
1^
b111 c
#144000
0!
0^
#145000
1!
b1000001100101011100000011 #
b101000 $
1%
b0 &
b0 M
b101011100000011 Q
b11 R
b101011100000011 T
b101011100000011 Y
0Z
1^
b110 c
b0 s
#146000
0!
0^
#147000
1!
b11111110000001110000111011100011 #
b101000 $
0%
b0 &
b1 M
b111011100011 Q
b11100011 R
0S
b111011100011 T
b111011100011 Y
1^
b101 c
#148000
0!
0^
#149000
1!
b11111110000001110000111011100011 #
b1111111111111111100000 $
0%
b0 &
b11111110000001110000111011100011 (
0,
1-
0.
0/
00
01
02
03
b1110 5
b0 6
b11101 7
b0 8
b1111111 9
b11111110000001110000000000000000 :
b11111111111111111111111111100000 ;
b11111111111111111111111111111101 <
b11111111111111111111111111111100 =
b11111111111101110000011111100000 >
b0 @
b10000000000000000000000 A
1B
b10000000000000000000000 C
0D
0G
b0 H
b10000000000000000000000 J
b10000000000000000000000 K
b1000000000 L
b10 M
b1111111111111111100000 N
1O
0P
b111011100011 Q
b11100011 R
1S
b11111111111111111111111111100011 T
b1 U
b100100 W
b101100 X
b10000000000000000000000 Y
1^
b100 c
#150000
0!
0^
#151000
1!
b0 #
b11111111111111111111111111100000 $
0%
b0 &
b0 *
b0 ?
b0 A
b0 C
1D
1G
b0 I
b0 J
b0 K
b0 L
b11 M
b11111111111111111111111111100000 N
b0 Q
b0 R
0S
b0 T
b100100 X
b0 Y
1^
b11 c
#152000
0!
0^
#153000
1!
b11111110000001110000111011100011 #
b100100 $
1%
b0 &
b100100 )
b0 M
b111011100011 Q
b11100011 R
1S
b11111111111111111111111111100011 T
b101000 V
b100000 W
b100000 X
1^
b10 c
#154000
0!
0^
#155000
1!
b1000001100101011100000011 #
b100100 $
0%
b0 &
b1 M
b101011100000011 Q
b11 R
0S
b11 T
1^
b1 c
#156000
0!
0^
#157000
1!
b1000001100101011100000011 #
b10000 $
0%
b0 &
b1000001100101011100000011 (
0,
0-
0.
0/
00
01
12
03
b1100 5
b10000 6
b1110 7
b101 8
b0 9
b1000001100101000000000000 :
b10000 ;
b1110 <
b1110 =
b1100101000000010000 >
b10000 @
b0 A
0B
b10000 C
0D
0E
0F
1G
b10000 H
b0 J
b0 K
b10 M
b10000 N
0O
1P
b101011100000011 Q
b11 R
0S
b101011100000011 T
b11 U
b110010 W
b101000 X
b101011100000011 Y
1^
b0 c
#158000
0!
0^
#159000
1!
b0 #
b10000000000000000010000 $
0%
b0 &
b10000000000000000000000 *
b10000000000000000000000 ?
b1000000 A
b10000000000000000010000 C
0D
b1000000000 I
b10000000000000000000000 J
b1000000 K
b10000000000000000000000000 L
b11 M
b10000000000000000010000 N
b0 Q
b0 R
b0 T
b0 Y
1^
b11111 c
#160000
0!
0^
#161000
1!
b10000000000000000010000 $
1%
b0 &
b101000 )
b100 M
b101100 V
b110110 W
b101100 X
0]
1^
b1010 c
b1010010 d
#162000
0!
0^
#163000
1!
b10000000000000000010000 $
0%
b0 &
b101 M
1Z
1^
b1001 c
#164000
0!
0^
#165000
1!
b1000001100101011100000011 #
b101000 $
1%
b0 &
b0 M
b101011100000011 Q
b11 R
b101011100000011 T
b101011100000011 Y
0Z
1^
b1000 c
#166000
0!
0^
#167000
1!
b11111110000001110000111011100011 #
b101000 $
0%
b0 &
b1 M
b111011100011 Q
b11100011 R
0S
b111011100011 T
b111011100011 Y
1^
b111 c
#168000
0!
0^
#169000
1!
b11111110000001110000111011100011 #
b1111111111111111100000 $
0%
b0 &
b11111110000001110000111011100011 (
0,
1-
0.
0/
00
01
02
03
b1110 5
b0 6
b11101 7
b0 8
b1111111 9
b11111110000001110000000000000000 :
b11111111111111111111111111100000 ;
b11111111111111111111111111111101 <
b11111111111111111111111111111100 =
b11111111111101110000011111100000 >
b0 @
b10000000000000000000000 A
1B
b10000000000000000000000 C
0D
0G
b0 H
b10000000000000000000000 J
b10000000000000000000000 K
b1000000000 L
b10 M
b1111111111111111100000 N
1O
0P
b111011100011 Q
b11100011 R
1S
b11111111111111111111111111100011 T
b1 U
b100100 W
b101100 X
b10000000000000000000000 Y
1^
b110 c
#170000
0!
0^
#171000
1!
b0 #
b11111111111111111111111111100000 $
0%
b0 &
b0 *
b0 ?
b0 A
b0 C
1D
1G
b0 I
b0 J
b0 K
b0 L
b11 M
b11111111111111111111111111100000 N
b0 Q
b0 R
0S
b0 T
b100100 X
b0 Y
1^
b101 c
#172000
0!
0^
#173000
1!
b11111110000001110000111011100011 #
b100100 $
1%
b0 &
b100100 )
b0 M
b111011100011 Q
b11100011 R
1S
b11111111111111111111111111100011 T
b101000 V
b100000 W
b100000 X
1^
b100 c
#174000
0!
0^
#175000
1!
b1000001100101011100000011 #
b100100 $
0%
b0 &
b1 M
b101011100000011 Q
b11 R
0S
b11 T
1^
b11 c
#176000
0!
0^
#177000
1!
b1000001100101011100000011 #
b10000 $
0%
b0 &
b1000001100101011100000011 (
0,
0-
0.
0/
00
01
12
03
b1100 5
b10000 6
b1110 7
b101 8
b0 9
b1000001100101000000000000 :
b10000 ;
b1110 <
b1110 =
b1100101000000010000 >
b10000 @
b0 A
0B
b10000 C
0D
0E
0F
1G
b10000 H
b0 J
b0 K
b10 M
b10000 N
0O
1P
b101011100000011 Q
b11 R
0S
b101011100000011 T
b11 U
b110010 W
b101000 X
b101011100000011 Y
1^
b10 c
#178000
0!
0^
#179000
1!
b0 #
b10000000000000000010000 $
0%
b0 &
b10000000000000000000000 *
b10000000000000000000000 ?
b1000000 A
b10000000000000000010000 C
0D
b1000000000 I
b10000000000000000000000 J
b1000000 K
b10000000000000000000000000 L
b11 M
b10000000000000000010000 N
b0 Q
b0 R
b0 T
b0 Y
1^
b1 c
#180000
0!
0^
#181000
1!
b10000000000000000010000 $
1%
b0 &
b101000 )
b100 M
b101100 V
b110110 W
b101100 X
1^
b0 c
#182000
0!
0^
#183000
1!
b10000000000000000010000 $
0%
b0 &
b101 M
1Z
1^
b11111 c
#184000
0!
0^
#185000
1!
b1000001100101011100000011 #
b101000 $
1%
b0 &
b0 M
b101011100000011 Q
b11 R
b101011100000011 T
b101011100000011 Y
0Z
0]
1^
b1010 c
b101001 d
#186000
0!
0^
#187000
1!
b11111110000001110000111011100011 #
b101000 $
0%
b0 &
b1 M
b111011100011 Q
b11100011 R
0S
b111011100011 T
b111011100011 Y
1^
b1001 c
#188000
0!
0^
