verilog/RiscvFemto_tb.vcd
$date
   Fri Dec  2 23:03:14 2022
$end
$version
  2020.2
$end
$timescale
  1ps
$end
$scope module RiscvFemto_tb $end
$var reg 1 ] tx $end
$var reg 8 \ leds [7:0] $end
$var wire 32 e regFile0 [31:0] $end
$var wire 32 f regFile1 [31:0] $end
$var wire 32 g regFile2 [31:0] $end
$var wire 32 h regFile3 [31:0] $end
$var wire 32 i regFile4 [31:0] $end
$var wire 32 j regFile5 [31:0] $end
$var wire 32 k regFile6 [31:0] $end
$var wire 32 l regFile7 [31:0] $end
$var wire 32 m regFile8 [31:0] $end
$var wire 32 n regFile9 [31:0] $end
$var wire 32 o regFile10 [31:0] $end
$var wire 32 p regFile11 [31:0] $end
$var wire 32 q regFile12 [31:0] $end
$var wire 32 r regFile13 [31:0] $end
$var wire 32 s regFile14 [31:0] $end
$var wire 32 t regFile15 [31:0] $end
$var wire 32 u regFile16 [31:0] $end
$var wire 32 v regFile17 [31:0] $end
$var wire 32 w regFile18 [31:0] $end
$var wire 32 x regFile19 [31:0] $end
$var wire 32 y regFile20 [31:0] $end
$var wire 32 z regFile21 [31:0] $end
$var wire 32 { regFile22 [31:0] $end
$var wire 32 | regFile23 [31:0] $end
$var wire 32 } regFile24 [31:0] $end
$var wire 32 ~ regFile25 [31:0] $end
$var wire 32 !! regFile26 [31:0] $end
$var wire 32 "! regFile27 [31:0] $end
$var wire 32 #! regFile28 [31:0] $end
$var wire 32 $! regFile29 [31:0] $end
$var wire 32 %! regFile30 [31:0] $end
$var wire 32 &! regFile31 [31:0] $end
$scope module uut $end
$var reg 1 ! clk $end
$var reg 1 " rstn $end
$var reg 32 # memIn [31:0] $end
$var reg 32 $ memAddr [31:0] $end
$var reg 1 % memRead $end
$var reg 4 & memWstrb [3:0] $end
$var reg 32 ' memWrite [31:0] $end
$var reg 32 ( instr [31:0] $end
$var reg 32 ) pc [31:0] $end
$var reg 32 * rs1 [31:0] $end
$var reg 32 + rs2 [31:0] $end
$var wire 1 , isAluReg $end
$var wire 1 - isBranch $end
$var wire 1 . isJalr $end
$var wire 1 / isJal $end
$var wire 1 0 isAuiPc $end
$var wire 1 1 isLui $end
$var wire 1 2 isLoad $end
$var wire 1 3 isStore $end
$var wire 1 4 isSystem $end
$var wire 5 5 rs1Id [4:0] $end
$var wire 5 6 rs2Id [4:0] $end
$var wire 5 7 rdId [4:0] $end
$var wire 3 8 funct3 [2:0] $end
$var wire 7 9 funct7 [6:0] $end
$var wire 32 : immU [31:0] $end
$var wire 32 ; immI [31:0] $end
$var wire 32 < immS [31:0] $end
$var wire 32 = immB [31:0] $end
$var wire 32 > immJ [31:0] $end
$var wire 32 ? aluIn1 [31:0] $end
$var wire 32 @ aluIn2 [31:0] $end
$var reg 32 A aluOut [31:0] $end
$var wire 1 B aluSubtract $end
$var wire 33 C aluAdder [32:0] $end
$var wire 1 D aluEq $end
$var wire 1 E aluLtu $end
$var wire 1 F aluLt $end
$var reg 1 G takeBranch $end
$var wire 5 H shamt [4:0] $end
$var wire 32 I flipAluIn1 [31:0] $end
$var wire 32 J shifterIn [31:0] $end
$var wire 32 K shifter [31:0] $end
$var wire 32 L leftShift [31:0] $end
$var reg 32 M state [31:0] $end
$var wire 32 N loadstoreAddr [31:0] $end
$var wire 1 O memByteAccess $end
$var wire 1 P memHalfwordAccess $end
$var wire 16 Q loadHalfword [15:0] $end
$var wire 8 R loadByte [7:0] $end
$var wire 1 S loadSign $end
$var wire 32 T loadData [31:0] $end
$var wire 4 U storeMask [3:0] $end
$var wire 32 V pcPlus4 [31:0] $end
$var wire 32 W pcPlusImm [31:0] $end
$var wire 32 X nextPC [31:0] $end
$var wire 32 Y writeBackData [31:0] $end
$var wire 1 Z writeBackEn $end
$scope begin Block20_2 $end
$var reg 32 [ i $end
$upscope $end
$upscope $end
$scope module uat0 $end
$var wire 1 ^ clk $end
$var wire 1 _ rstn $end
$var wire 8 ` dIn [7:0] $end
$var wire 1 a dInValid $end
$var reg 1 b dInReady $end
$var reg 1 ] tx $end
$var reg 5 c clkDiv [4:0] $end
$var reg 9 d shift [8:0] $end
$upscope $end
$upscope $end
$enddefinitions $end
#0
$dumpvars
0!
b0 !!
1"
b0 "!
bx #
b0 #!
b0 $
b0 $!
1%
b0 %!
b0 &
b0 &!
b0 '
b0 (
b0 )
b0 *
b0 +
0,
0-
0.
0/
00
01
02
03
04
b0 5
b0 6
b0 7
b0 8
b0 9
b0 :
b0 ;
b0 <
b0 =
b0 >
b0 ?
b0 @
b0 A
0B
b0 C
1D
0E
0F
1G
b0 H
b0 I
b0 J
b0 K
b0 L
b0 M
b0 N
1O
0P
bx Q
bx R
xS
bx T
b1 U
b100 V
b0 W
b100 X
b0 Y
0Z
b100000 [
b0 \
1]
0^
1_
b0 `
0a
0b
b11111 c
b0 d
b0 e
b0 f
b0 g
b0 h
b0 i
b0 j
b0 k
b0 l
b0 m
b0 n
b0 o
b0 p
b0 q
b0 r
b0 s
b0 t
b0 u
b0 v
b0 w
b0 x
b0 y
b0 z
b0 {
b0 |
b0 }
b0 ~
$end
#1000
1!
b10010111 #
b0 $
0%
b0 &
b1 M
b10010111 Q
b10010111 R
1S
b11111111111111111111111110010111 T
1]
1^
1b
#2000
0!
0^
#3000
1!
b0 $
0%
b0 &
b10010111 (
0,
0-
0.
0/
10
01
02
03
b1 7
b1 <
b100000000000 =
b10 M
b0 N
b0 W
1]
1^
#4000
0!
0^
#5000
1!
b0 $
0%
b0 &
b11 M
1Z
1]
1^
#6000
0!
0^
#7000
1!
b100 $
1%
b0 &
b100 )
b0 M
b1000 V
b100 W
b1000 X
b100 Y
0Z
1]
1^
#8000
0!
0^
#9000
1!
b1000000001000000011100111 #
b100 $
0%
b0 &
b1 M
b1000000011100111 Q
b11100111 R
1S
b11111111111111111111111111100111 T
1]
1^
#10000
0!
0^
#11000
1!
b1000000001000000011100111 #
b10000 $
0%
b0 &
b1000000001000000011100111 (
0,
0-
1.
0/
00
01
02
03
b1 5
b10000 6
b1000000001000000000000000 :
b10000 ;
b1000000000010000 >
b10000 @
b10000 A
b10000 C
0D
0G
b10000 H
b0 K
b10 M
b10000 N
b100000000100 W
b10000 X
b1000 Y
1]
1^
#12000
0!
0^
#13000
1!
b10000 $
0%
b0 &
b11 M
1Z
1]
1^
#14000
0!
0^
#15000
1!
b10000 $
1%
b0 &
b10000 )
b0 M
b10100 V
b100000010000 W
b10100 Y
0Z
1]
1^
b1000 f
#16000
0!
0^
#17000
1!
b11111111000000010000000100010011 #
b10000 $
0%
b0 &
b1 M
b100010011 Q
b10011 R
0S
b10011 T
1]
1^
#18000
0!
0^
#19000
1!
b1000000000 #
b11111111111111111111111111110000 $
0%
b0 &
b11111111000000010000000100010011 (
0,
0-
0.
0/
00
01
02
03
b10 5
b10 7
b1111111 9
b11111111000000010000000000000000 :
b11111111111111111111111111110000 ;
b11111111111111111111111111100010 <
b11111111111111111111011111100010 =
b11111111111100010000011111110000 >
b11111111111111111111111111110000 @
b11111111111111111111111111110000 A
0B
b111111111111111111111111111110000 C
0D
0E
1F
b10 M
b11111111111111111111111111110000 N
b1000000000 Q
b0 R
b0 T
b11111111000000010000000000010000 W
b10100 X
b11111111111111111111111111110000 Y
1]
1^
#20000
0!
0^
#21000
1!
b11111111111111111111111111110000 $
0%
b0 &
b11 M
1Z
1]
1^
#22000
0!
0^
#23000
1!
b11111111000000010000000100010011 #
b10100 $
1%
b0 &
b10100 )
b0 M
b100010011 Q
b10011 R
b10011 T
b11000 V
b11111111000000010000000000010100 W
b11000 X
0Z
1]
1^
b11111111111111111111111111110000 g
#24000
0!
0^
#25000
1!
b100010010011000100011 #
b10100 $
0%
b0 &
b1 M
b10011000100011 Q
b100011 R
b100011 T
1]
1^
#26000
0!
0^
#27000
1!
b100010010011000100011 #
b1100 $
0%
b0 &
b0 '
b100010010011000100011 (
0,
0-
0.
0/
00
01
02
13
b1 6
b1100 7
b10 8
b0 9
b100010010000000000000 :
b1 ;
b1100 <
b1100 =
b10010100000000000 >
b1 @
b0 A
0B
b1 C
0D
0E
0F
b1 H
b0 J
b0 K
b10 M
b1100 N
0O
0P
b10011000100011 Q
b100011 R
0S
b100010010011000100011 T
b1111 U
b100000 W
b0 Y
1]
1^
#28000
0!
0^
#29000
1!
b1000000000 #
b11111111111111111111111111111100 $
0%
b0 &
b1000 '
b11111111111111111111111111110000 *
b1000 +
b11111111111111111111111111110000 ?
b1 @
b1 A
b111111111111111111111111111110001 C
0D
0E
1F
b1111111111111111111111111111 I
b11111111111111111111111111110000 J
b1111111111111111111111111111000 K
b11111111111111111111111111110 L
b11 M
b11111111111111111111111111111100 N
b1000000000 Q
b0 R
b1000000000 T
b1 Y
1]
1^
b1000 `
#30000
0!
0^
#31000
1!
b11111111111111111111111111111100 $
0%
b1111 &
b11000 )
b110 M
b11100 V
b100100 W
b11100 X
1]
1^
1a
#32000
0!
0^
#33000
1!
b100010010011000100011 #
b11000 $
1%
b0 &
b0 M
b10011000100011 Q
b100011 R
b100010010011000100011 T
b1000 \
0]
1^
0a
0b
b1010 c
b100001000 d
#34000
0!
0^
#35000
1!
b10010111 #
b11000 $
0%
b0 &
b1 M
b10010111 Q
b10010111 R
0S
b10010111 T
1^
b1001 c
#36000
0!
0^
#37000
1!
b0 #
b11111111111111111111111111110000 $
0%
b0 &
b1000 '
b10010111 (
0,
0-
0.
0/
10
01
02
03
b0 5
b0 6
b1 7
b0 8
b0 :
b0 ;
b1 <
b100000000000 =
b0 >
b0 @
b11111111111111111111111111110000 A
b111111111111111111111111111110000 C
0D
b0 H
b11111111111111111111111111110000 J
b11111111111111111111111111110000 K
b1111111111111111111111111111 L
b10 M
b11111111111111111111111111110000 N
1O
0P
b0 Q
b0 R
0S
b0 T
b1 U
b11000 W
b11000 Y
1^
b1000 c
#38000
0!
0^
#39000
1!
b10010111 #
b0 $
0%
b0 &
b0 '
b0 *
b0 +
b0 ?
b0 @
b0 A
b0 C
1D
0E
0F
1G
b0 I
b0 J
b0 K
b0 L
b11 M
b0 N
b10010111 Q
b10010111 R
1S
b11111111111111111111111110010111 T
1Z
1^
b0 `
b111 c
#40000
0!
0^
#41000
1!
b10010111 #
b11100 $
1%
b0 &
b11100 )
b0 M
b100000 V
b11100 W
b100000 X
b11100 Y
0Z
1^
b110 c
b11000 f
#42000
0!
0^
#43000
1!
b11111111010000001000000011100111 #
b11100 $
0%
b0 &
b1 M
b1000000011100111 Q
b11100111 R
1S
b11111111111111111111111111100111 T
1^
b101 c
#44000
0!
0^
#45000
1!
b0 #
b11111111111111111111111111110100 $
0%
b0 &
b11111111010000001000000011100111 (
0,
0-
1.
0/
00
01
02
03
b1 5
b10100 6
b1111111 9
b11111111010000001000000000000000 :
b11111111111111111111111111110100 ;
b11111111111111111111111111100001 <
b11111111111111111111111111100000 =
b11111111111100001000011111110100 >
b11111111111111111111111111110100 @
b11111111111111111111111111110100 A
0B
b111111111111111111111111111110100 C
0D
0E
1F
0G
b10100 H
b0 K
b10 M
b11111111111111111111111111110100 N
b0 Q
b0 R
0S
b0 T
b11111111111111111111111111111100 W
b11111111111111111111111111110100 X
b100000 Y
1^
b100 c
#46000
0!
0^
#47000
1!
b11111111010000001000000011100111 #
b1100 $
0%
b0 &
b11000 *
b11000 ?
b1100 A
b1100 C
0D
1E
0F
b11000000000000000000000000000 I
b11000 J
b0 K
b11 M
b1100 N
b1000000011100111 Q
b11100111 R
1S
b11111111111111111111111111100111 T
b1100 X
1Z
1^
b11 c
#48000
0!
0^
#49000
1!
b1100 $
1%
b0 &
b1100 )
b0 M
b10000 V
b11111111111111111111111111101100 W
b10000 Y
0Z
1^
b10 c
b100000 f
#50000
0!
0^
#51000
1!
b1101111 #
b1100 $
0%
b0 &
b1 M
b1101111 Q
b1101111 R
0S
b1101111 T
1^
b1 c
#52000
0!
0^
#53000
1!
b1101111 #
b11000 $
0%
b0 &
b1101111 (
0,
0-
0.
1/
00
01
02
03
b0 5
b0 6
b0 7
b0 9
b0 :
b0 ;
b0 <
b0 =
b0 >
b0 @
b11000 A
0B
b11000 C
0D
0E
b0 H
b11000 K
b11000000000000000000000000000 L
b10 M
b11000 N
b1100 W
b1100 X
1^
b0 c
#54000
0!
0^
#55000
1!
b1101111 #
b0 $
0%
b0 &
b0 *
b0 ?
b0 A
b0 C
1D
1G
b0 I
b0 J
b0 K
b0 L
b11 M
b0 N
1Z
1^
b11111 c
#56000
0!
0^
#57000
1!
b1100 $
1%
b0 &
b1100 )
b0 M
0Z
0]
1^
b1010 c
b10000100 d
#58000
0!
0^
#59000
1!
b1100 $
0%
b0 &
b1 M
1^
b1001 c
#60000
0!
0^
#61000
1!
b0 $
0%
b0 &
b10 M
1^
b1000 c
#62000
0!
0^
#63000
1!
b0 $
0%
b0 &
b11 M
1Z
1^
b111 c
#64000
0!
0^
#65000
1!
b1100 $
1%
b0 &
b1100 )
b0 M
0Z
1^
b110 c
#66000
0!
0^
#67000
1!
b1100 $
0%
b0 &
b1 M
1^
b101 c
#68000
0!
0^
#69000
1!
b0 $
0%
b0 &
b10 M
1^
b100 c
#70000
0!
0^
#71000
1!
b0 $
0%
b0 &
b11 M
1Z
1^
b11 c
#72000
0!
0^
#73000
1!
b1100 $
1%
b0 &
b1100 )
b0 M
0Z
1^
b10 c
#74000
0!
0^
#75000
1!
b1100 $
0%
b0 &
b1 M
1^
b1 c
#76000
0!
0^
#77000
1!
b0 $
0%
b0 &
b10 M
1^
b0 c
#78000
0!
0^
#79000
1!
b0 $
0%
b0 &
b11 M
1Z
1^
b11111 c
#80000
0!
0^
#81000
1!
b1100 $
1%
b0 &
b1100 )
b0 M
0Z
0]
1^
b1010 c
b1000010 d
#82000
0!
0^
#83000
1!
b1100 $
0%
b0 &
b1 M
1^
b1001 c
#84000
0!
0^
#85000
1!
b0 $
0%
b0 &
b10 M
1^
b1000 c
#86000
0!
0^
#87000
1!
b0 $
0%
b0 &
b11 M
1Z
1^
b111 c
#88000
0!
0^
#89000
1!
b1100 $
1%
b0 &
b1100 )
b0 M
0Z
1^
b110 c
#90000
0!
0^
#91000
1!
b1100 $
0%
b0 &
b1 M
1^
b101 c
#92000
0!
0^
#93000
1!
b0 $
0%
b0 &
b10 M
1^
b100 c
#94000
0!
0^
#95000
1!
b0 $
0%
b0 &
b11 M
1Z
1^
b11 c
#96000
0!
0^
#97000
1!
b1100 $
1%
b0 &
b1100 )
b0 M
0Z
1^
b10 c
#98000
0!
0^
#99000
1!
b1100 $
0%
b0 &
b1 M
1^
b1 c
#100000
0!
0^
#101000
1!
b0 $
0%
b0 &
b10 M
1^
b0 c
#102000
0!
0^
#103000
1!
b0 $
0%
b0 &
b11 M
1Z
1^
b11111 c
#104000
0!
0^
#105000
1!
b1100 $
1%
b0 &
b1100 )
b0 M
0Z
0]
1^
b1010 c
b100001 d
#106000
0!
0^
#107000
1!
b1100 $
0%
b0 &
b1 M
1^
b1001 c
#108000
0!
0^
#109000
1!
b0 $
0%
b0 &
b10 M
1^
b1000 c
#110000
0!
0^
#111000
1!
b0 $
0%
b0 &
b11 M
1Z
1^
b111 c
#112000
0!
0^
#113000
1!
b1100 $
1%
b0 &
b1100 )
b0 M
0Z
1^
b110 c
#114000
0!
0^
#115000
1!
b1100 $
0%
b0 &
b1 M
1^
b101 c
#116000
0!
0^
#117000
1!
b0 $
0%
b0 &
b10 M
1^
b100 c
#118000
0!
0^
#119000
1!
b0 $
0%
b0 &
b11 M
1Z
1^
b11 c
#120000
0!
0^
#121000
1!
b1100 $
1%
b0 &
b1100 )
b0 M
0Z
1^
b10 c
#122000
0!
0^
#123000
1!
b1100 $
0%
b0 &
b1 M
1^
b1 c
#124000
0!
0^
#125000
1!
b0 $
0%
b0 &
b10 M
1^
b0 c
#126000
0!
0^
#127000
1!
b0 $
0%
b0 &
b11 M
1Z
1^
b11111 c
#128000
0!
0^
#129000
1!
b1100 $
1%
b0 &
b1100 )
b0 M
0Z
1]
1^
b1010 c
b10000 d
#130000
0!
0^
#131000
1!
b1100 $
0%
b0 &
b1 M
1^
b1001 c
#132000
0!
0^
#133000
1!
b0 $
0%
b0 &
b10 M
1^
b1000 c
#134000
0!
0^
#135000
1!
b0 $
0%
b0 &
b11 M
1Z
1^
b111 c
#136000
0!
0^
#137000
1!
b1100 $
1%
b0 &
b1100 )
b0 M
0Z
1^
b110 c
#138000
0!
0^
#139000
1!
b1100 $
0%
b0 &
b1 M
1^
b101 c
#140000
0!
0^
#141000
1!
b0 $
0%
b0 &
b10 M
1^
b100 c
#142000
0!
0^
#143000
1!
b0 $
0%
b0 &
b11 M
1Z
1^
b11 c
#144000
0!
0^
#145000
1!
b1100 $
1%
b0 &
b1100 )
b0 M
0Z
1^
b10 c
#146000
0!
0^
#147000
1!
b1100 $
0%
b0 &
b1 M
1^
b1 c
#148000
0!
0^
#149000
1!
b0 $
0%
b0 &
b10 M
1^
b0 c
#150000
0!
0^
#151000
1!
b0 $
0%
b0 &
b11 M
1Z
1^
b11111 c
#152000
0!
0^
#153000
1!
b1100 $
1%
b0 &
b1100 )
b0 M
0Z
0]
1^
b1010 c
b1000 d
#154000
0!
0^
#155000
1!
b1100 $
0%
b0 &
b1 M
1^
b1001 c
#156000
0!
0^
#157000
1!
b0 $
0%
b0 &
b10 M
1^
b1000 c
#158000
0!
0^
#159000
1!
b0 $
0%
b0 &
b11 M
1Z
1^
b111 c
#160000
0!
0^
#161000
1!
b1100 $
1%
b0 &
b1100 )
b0 M
0Z
1^
b110 c
#162000
0!
0^
#163000
1!
b1100 $
0%
b0 &
b1 M
1^
b101 c
#164000
0!
0^
#165000
1!
b0 $
0%
b0 &
b10 M
1^
b100 c
#166000
0!
0^
#167000
1!
b0 $
0%
b0 &
b11 M
1Z
1^
b11 c
#168000
0!
0^
#169000
1!
b1100 $
1%
b0 &
b1100 )
b0 M
0Z
1^
b10 c
#170000
0!
0^
#171000
1!
b1100 $
0%
b0 &
b1 M
1^
b1 c
#172000
0!
0^
#173000
1!
b0 $
0%
b0 &
b10 M
1^
b0 c
#174000
0!
0^
#175000
1!
b0 $
0%
b0 &
b11 M
1Z
1^
b11111 c
#176000
0!
0^
#177000
1!
b1100 $
1%
b0 &
b1100 )
b0 M
0Z
0]
1^
b1010 c
b100 d
#178000
0!
0^
#179000
1!
b1100 $
0%
b0 &
b1 M
1^
b1001 c
#180000
0!
0^
#181000
1!
b0 $
0%
b0 &
b10 M
1^
b1000 c
#182000
0!
0^
#183000
1!
b0 $
0%
b0 &
b11 M
1Z
1^
b111 c
#184000
0!
0^
#185000
1!
b1100 $
1%
b0 &
b1100 )
b0 M
0Z
1^
b110 c
#186000
0!
0^
#187000
1!
b1100 $
0%
b0 &
b1 M
1^
b101 c
#188000
0!
0^
#189000
1!
b0 $
0%
b0 &
b10 M
1^
b100 c
#190000
0!
0^
#191000
1!
b0 $
0%
b0 &
b11 M
1Z
1^
b11 c
#192000
0!
0^
#193000
1!
b1100 $
1%
b0 &
b1100 )
b0 M
0Z
1^
b10 c
#194000
0!
0^
#195000
1!
b1100 $
0%
b0 &
b1 M
1^
b1 c
#196000
0!
0^
#197000
1!
b0 $
0%
b0 &
b10 M
1^
b0 c
#198000
0!
0^
#199000
1!
b0 $
0%
b0 &
b11 M
1Z
1^
b11111 c
#200000
0!
0^
#201000
1!
b1100 $
1%
b0 &
b1100 )
b0 M
0Z
0]
1^
b1010 c
b10 d
#202000
0!
0^
#203000
1!
b1100 $
0%
b0 &
b1 M
1^
b1001 c
#204000
0!
0^
#205000
1!
b0 $
0%
b0 &
b10 M
1^
b1000 c
#206000
0!
0^
#207000
1!
b0 $
0%
b0 &
b11 M
1Z
1^
b111 c
#208000
0!
0^
#209000
1!
b1100 $
1%
b0 &
b1100 )
b0 M
0Z
1^
b110 c
#210000
0!
0^
#211000
1!
b1100 $
0%
b0 &
b1 M
1^
b101 c
#212000
0!
0^
#213000
1!
b0 $
0%
b0 &
b10 M
1^
b100 c
#214000
0!
0^
#215000
1!
b0 $
0%
b0 &
b11 M
1Z
1^
b11 c
#216000
0!
0^
#217000
1!
b1100 $
1%
b0 &
b1100 )
b0 M
0Z
1^
b10 c
#218000
0!
0^
#219000
1!
b1100 $
0%
b0 &
b1 M
1^
b1 c
#220000
0!
0^
#221000
1!
b0 $
0%
b0 &
b10 M
1^
b0 c
#222000
0!
0^
#223000
1!
b0 $
0%
b0 &
b11 M
1Z
1^
b11111 c
#224000
0!
0^
#225000
1!
b1100 $
1%
b0 &
b1100 )
b0 M
0Z
0]
1^
b1010 c
b1 d
#226000
0!
0^
#227000
1!
b1100 $
0%
b0 &
b1 M
1^
b1001 c
#228000
0!
0^
#229000
1!
b0 $
0%
b0 &
b10 M
1^
b1000 c
#230000
0!
0^
#231000
1!
b0 $
0%
b0 &
b11 M
1Z
1^
b111 c
#232000
0!
0^
#233000
1!
b1100 $
1%
b0 &
b1100 )
b0 M
0Z
1^
b110 c
#234000
0!
0^
#235000
1!
b1100 $
0%
b0 &
b1 M
1^
b101 c
#236000
0!
0^
#237000
1!
b0 $
0%
b0 &
b10 M
1^
b100 c
#238000
0!
0^
#239000
1!
b0 $
0%
b0 &
b11 M
1Z
1^
b11 c
#240000
0!
0^
#241000
1!
b1100 $
1%
b0 &
b1100 )
b0 M
0Z
1^
b10 c
#242000
0!
0^
#243000
1!
b1100 $
0%
b0 &
b1 M
1^
b1 c
#244000
0!
0^
#245000
1!
b0 $
0%
b0 &
b10 M
1^
b0 c
#246000
0!
0^
#247000
1!
b0 $
0%
b0 &
b11 M
1Z
1^
b11111 c
#248000
0!
0^
#249000
1!
b1100 $
1%
b0 &
b1100 )
b0 M
0Z
1]
1^
b1010 c
b0 d
#250000
0!
0^
#251000
1!
b1100 $
0%
b0 &
b1 M
1^
b1001 c
#252000
0!
0^
#253000
1!
b0 $
0%
b0 &
b10 M
1^
b1000 c
#254000
0!
0^
#255000
1!
b0 $
0%
b0 &
b11 M
1Z
1^
b111 c
#256000
0!
0^
#257000
1!
b1100 $
1%
b0 &
b1100 )
b0 M
0Z
1^
b110 c
#258000
0!
0^
#259000
1!
b1100 $
0%
b0 &
b1 M
1^
b101 c
#260000
0!
0^
#261000
1!
b0 $
0%
b0 &
b10 M
1^
b100 c
#262000
0!
0^
#263000
1!
b0 $
0%
b0 &
b11 M
1Z
1^
b11 c
#264000
0!
0^
#265000
1!
b1100 $
1%
b0 &
b1100 )
b0 M
0Z
1^
b10 c
#266000
0!
0^
#267000
1!
b1100 $
0%
b0 &
b1 M
1^
b1 c
#268000
0!
0^
#269000
1!
b0 $
0%
b0 &
b10 M
1^
b0 c
#270000
0!
0^
#271000
1!
b0 $
0%
b0 &
b11 M
1Z
1^
b11111 c
#272000
0!
0^
#273000
1!
b1101111 #
b1100 $
1%
b0 &
b1100 )
b0 M
0Z
1]
1^
1b
#274000
0!
0^
#275000
1!
b1100 $
0%
b0 &
b1 M
1]
1^
#276000
0!
0^
#277000
1!
b0 $
0%
b0 &
b10 M
1]
1^
#278000
0!
0^
#279000
1!
b0 $
0%
b0 &
b11 M
1Z
1]
1^
#280000
0!
0^
#281000
1!
b1100 $
1%
b0 &
b1100 )
b0 M
0Z
1]
1^
#282000
0!
0^
#283000
1!
b1100 $
0%
b0 &
b1 M
1]
1^
#284000
0!
0^
#285000
1!
b0 $
0%
b0 &
b10 M
1]
1^
#286000
0!
0^
#287000
1!
b0 $
0%
b0 &
b11 M
1Z
1]
1^
#288000
0!
0^
#289000
1!
b1100 $
1%
b0 &
b1100 )
b0 M
0Z
1]
1^
#290000
0!
0^
#291000
1!
b1100 $
0%
b0 &
b1 M
1]
1^
#292000
0!
0^
#293000
1!
b0 $
0%
b0 &
b10 M
1]
1^
#294000
0!
0^
#295000
1!
b0 $
0%
b0 &
b11 M
1Z
1]
1^
#296000
0!
0^
#297000
1!
b1100 $
1%
b0 &
b1100 )
b0 M
0Z
1]
1^
#298000
0!
0^
#299000
1!
b1100 $
0%
b0 &
b1 M
1]
1^
#300000
0!
0^
#301000
1!
b0 $
0%
b0 &
b10 M
1]
1^
#302000
0!
0^
#303000
1!
b0 $
0%
b0 &
b11 M
1Z
1]
1^
#304000
0!
0^
#305000
1!
b1100 $
1%
b0 &
b1100 )
b0 M
0Z
1]
1^
#306000
0!
0^
#307000
1!
b1100 $
0%
b0 &
b1 M
1]
1^
#308000
0!
0^
#309000
1!
b0 $
0%
b0 &
b10 M
1]
1^
#310000
0!
0^
#311000
1!
b0 $
0%
b0 &
b11 M
1Z
1]
1^
#312000
0!
0^
#313000
1!
b1100 $
1%
b0 &
b1100 )
b0 M
0Z
1]
1^
#314000
0!
0^
#315000
1!
b1100 $
0%
b0 &
b1 M
1]
1^
#316000
0!
0^
#317000
1!
b0 $
0%
b0 &
b10 M
1]
1^
#318000
0!
0^
#319000
1!
b0 $
0%
b0 &
b11 M
1Z
1]
1^
#320000
0!
0^
#321000
1!
b1100 $
1%
b0 &
b1100 )
b0 M
0Z
1]
1^
#322000
0!
0^
#323000
1!
b1100 $
0%
b0 &
b1 M
1]
1^
#324000
0!
0^
#325000
1!
b0 $
0%
b0 &
b10 M
1]
1^
#326000
0!
0^
#327000
1!
b0 $
0%
b0 &
b11 M
1Z
1]
1^
#328000
0!
0^
#329000
1!
b1100 $
1%
b0 &
b1100 )
b0 M
0Z
1]
1^
#330000
0!
0^
#331000
1!
b1100 $
0%
b0 &
b1 M
1]
1^
#332000
0!
0^
#333000
1!
b0 $
0%
b0 &
b10 M
1]
1^
#334000
0!
0^
#335000
1!
b0 $
0%
b0 &
b11 M
1Z
1]
1^
#336000
0!
0^
#337000
1!
b1100 $
1%
b0 &
b1100 )
b0 M
0Z
1]
1^
#338000
0!
0^
#339000
1!
b1100 $
0%
b0 &
b1 M
1]
1^
#340000
0!
0^
#341000
1!
b0 $
0%
b0 &
b10 M
1]
1^
#342000
0!
0^
#343000
1!
b0 $
0%
b0 &
b11 M
1Z
1]
1^
#344000
0!
0^
#345000
1!
b1100 $
1%
b0 &
b1100 )
b0 M
0Z
1]
1^
#346000
0!
0^
#347000
1!
b1100 $
0%
b0 &
b1 M
1]
1^
#348000
0!
0^
#349000
1!
b0 $
0%
b0 &
b10 M
1]
1^
#350000
0!
0^
#351000
1!
b0 $
0%
b0 &
b11 M
1Z
1]
1^
#352000
0!
0^
#353000
1!
b1100 $
1%
b0 &
b1100 )
b0 M
0Z
1]
1^
#354000
0!
0^
#355000
1!
b1100 $
0%
b0 &
b1 M
1]
1^
#356000
0!
0^
#357000
1!
b0 $
0%
b0 &
b10 M
1]
1^
#358000
0!
0^
#359000
1!
b0 $
0%
b0 &
b11 M
1Z
1]
1^
#360000
0!
0^
#361000
1!
b1100 $
1%
b0 &
b1100 )
b0 M
0Z
1]
1^
#362000
0!
0^
#363000
1!
b1100 $
0%
b0 &
b1 M
1]
1^
#364000
0!
0^
#365000
1!
b0 $
0%
b0 &
b10 M
1]
1^
#366000
0!
0^
#367000
1!
b0 $
0%
b0 &
b11 M
1Z
1]
1^
#368000
0!
0^
#369000
1!
b1100 $
1%
b0 &
b1100 )
b0 M
0Z
1]
1^
#370000
0!
0^
#371000
1!
b1100 $
0%
b0 &
b1 M
1]
1^
#372000
0!
0^
#373000
1!
b0 $
0%
b0 &
b10 M
1]
1^
#374000
0!
0^
#375000
1!
b0 $
0%
b0 &
b11 M
1Z
1]
1^
#376000
0!
0^
#377000
1!
b1100 $
1%
b0 &
b1100 )
b0 M
0Z
1]
1^
#378000
0!
0^
#379000
1!
b1100 $
0%
b0 &
b1 M
1]
1^
#380000
0!
0^
#381000
1!
b0 $
0%
b0 &
b10 M
1]
1^
#382000
0!
0^
#383000
1!
b0 $
0%
b0 &
b11 M
1Z
1]
1^
#384000
0!
0^
#385000
1!
b1100 $
1%
b0 &
b1100 )
b0 M
0Z
1]
1^
#386000
0!
0^
#387000
1!
b1100 $
0%
b0 &
b1 M
1]
1^
#388000
0!
0^
#389000
1!
b0 $
0%
b0 &
b10 M
1]
1^
#390000
0!
0^
#391000
1!
b0 $
0%
b0 &
b11 M
1Z
1]
1^
#392000
0!
0^
#393000
1!
b1100 $
1%
b0 &
b1100 )
b0 M
0Z
1]
1^
#394000
0!
0^
#395000
1!
b1100 $
0%
b0 &
b1 M
1]
1^
#396000
0!
0^
#397000
1!
b0 $
0%
b0 &
b10 M
1]
1^
#398000
0!
0^
#399000
1!
b0 $
0%
b0 &
b11 M
1Z
1]
1^
#400000
0!
0^
#401000
1!
b1100 $
1%
b0 &
b1100 )
b0 M
0Z
1]
1^
#402000
0!
0^
#403000
1!
b1100 $
0%
b0 &
b1 M
1]
1^
#404000
0!
0^
#405000
1!
b0 $
0%
b0 &
b10 M
1]
1^
#406000
0!
0^
#407000
1!
b0 $
0%
b0 &
b11 M
1Z
1]
1^
#408000
0!
0^
#409000
1!
b1100 $
1%
b0 &
b1100 )
b0 M
0Z
1]
1^
#410000
0!
0^
#411000
1!
b1100 $
0%
b0 &
b1 M
1]
1^
#412000
0!
0^
#413000
1!
b0 $
0%
b0 &
b10 M
1]
1^
#414000
0!
0^
#415000
1!
b0 $
0%
b0 &
b11 M
1Z
1]
1^
#416000
0!
0^
#417000
1!
b1100 $
1%
b0 &
b1100 )
b0 M
0Z
1]
1^
#418000
0!
0^
#419000
1!
b1100 $
0%
b0 &
b1 M
1]
1^
#420000
0!
0^
#421000
1!
b0 $
0%
b0 &
b10 M
1]
1^
#422000
0!
0^
#423000
1!
b0 $
0%
b0 &
b11 M
1Z
1]
1^
#424000
0!
0^
#425000
1!
b1100 $
1%
b0 &
b1100 )
b0 M
0Z
1]
1^
#426000
0!
0^
#427000
1!
b1100 $
0%
b0 &
b1 M
1]
1^
